DATASCI 306 Week 1
…
You can access individual entries in a vector using square brackets:

c(1, 2, 3)[3]

[1] 3

Data frames

A data frame is a table of data, like a spreadsheet.

You can see the first few rows of a data frame by typing its name:

heights

# A tibble: 117 × 3
   Timestamp          `What is your sex?` What is your height? (use whichever …¹
   <chr>              <chr>                                                <dbl>
 1 8/26/2025 7:23:17  Male                                                 72   
 2 8/26/2025 14:51:26 Male                                                170   
 3 8/26/2025 14:51:26 Female                                              164   
 4 8/26/2025 14:51:28 Male                                                  6   
 5 8/26/2025 14:51:31 Male                                                 68   
 6 8/26/2025 14:51:31 Female                                              162   
 7 8/26/2025 14:51:32 Male                                                  1.85
 8 8/26/2025 14:51:32 Male                                                184   
 9 8/26/2025 14:51:32 Male                                                178   
10 8/26/2025 14:51:33 Male                                                 70   
# ℹ 107 more rows
# ℹ abbreviated name: ¹​`What is your height? (use whichever units you prefer)`
…
