DATASCI 306
…
Do more people fly south in the winter?

How does weather affect flight cancellations?

Which airport is the busiest?

Using count()

The count() function is a shortcut for group_by() followed by summarise(n = n()).

Which month is the busiest?

What are the top five busiest days?

# A tibble: 365 × 4
    year month   day     n
   <int> <int> <int> <int>
 1  2013    11    27  1014
 2  2013     7    11  1006
 3  2013     7     8  1004
 4  2013     7    10  1004
 5  2013    12     2  1004
 6  2013     7    18  1003
 7  2013     7    25  1003
 8  2013     7    12  1002
 9  2013     7     9  1001
10  2013     7    17  1001
# ℹ 355 more rows
…
